\relax 
\providecommand\hyper@newdestlabel[2]{}
\providecommand\HyperFirstAtBeginDocument{\AtBeginDocument}
\HyperFirstAtBeginDocument{\ifx\hyper@anchor\@undefined
\global\let\oldcontentsline\contentsline
\gdef\contentsline#1#2#3#4{\oldcontentsline{#1}{#2}{#3}}
\global\let\oldnewlabel\newlabel
\gdef\newlabel#1#2{\newlabelxx{#1}#2}
\gdef\newlabelxx#1#2#3#4#5#6{\oldnewlabel{#1}{{#2}{#3}}}
\AtEndDocument{\ifx\hyper@anchor\@undefined
\let\contentsline\oldcontentsline
\let\newlabel\oldnewlabel
\fi}
\fi}
\global\let\hyper@last\relax 
\gdef\HyperFirstAtBeginDocument#1{#1}
\providecommand\HyField@AuxAddToFields[1]{}
\providecommand\HyField@AuxAddToCoFields[2]{}
\@writefile{toc}{\contentsline {section}{\numberline {1}Sorting Case Study}{1}{section.1}}
\@writefile{lol}{\contentsline {lstlisting}{\numberline {1}{data/DxDiag.txt}}{1}{lstlisting.1}}
\newlabel{dx}{{1}{1}{Sorting Case Study}{lstlisting.1}{}}
\@writefile{toc}{\contentsline {subsection}{\numberline {1.1}Experimental Setup}{1}{subsection.1.1}}
\@writefile{lol}{\contentsline {lstlisting}{\numberline {2}{../PqExp.h}}{2}{lstlisting.2}}
\newlabel{cgen}{{2}{2}{Experimental Setup}{lstlisting.2}{}}
\@writefile{toc}{\contentsline {subsection}{\numberline {1.2}Tests}{3}{subsection.1.2}}
\@writefile{toc}{\contentsline {subsection}{\numberline {1.3}Conclusion}{3}{subsection.1.3}}
\@writefile{toc}{\contentsline {subsection}{\numberline {1.4}Raw data}{5}{subsection.1.4}}
