\contentsline {section}{\numberline {1}Sorting Case Study}{1}{section.1}
\contentsline {subsection}{\numberline {1.1}Experimental Setup}{1}{subsection.1.1}
\contentsline {subsection}{\numberline {1.2}Tests}{3}{subsection.1.2}
\contentsline {subsection}{\numberline {1.3}Conclusion}{3}{subsection.1.3}
\contentsline {subsection}{\numberline {1.4}Raw data}{5}{subsection.1.4}
